{
	"port": 8001,
	"modules": {
        
        "g-app": {
            "js": true,
            "html": false,
            "css": false
        },
        "g-doc": {
            "html": false
        },
        "g-foot": {
            "css": false
        },
        "g-head": {
            "css": false
        },
        "g-page": {
            "html": false
        },
        "g-errors": {},
        "g-section": {},
        
        "u-normalize": {
            "html": false
        },
        "u-support": {
            "html": false,
            "css": false
        },
        "u-mixins": {
            "html": false
        },
		"u-modernizr": {
            "js": true,
            "html": false,
            "css": false
        },
		"u-vars": {
            "html": false
        },
        
        "l-grid": {
            "html": false
        },
        
        "typography": {
            "html": false
        },
        "header": {},
        "footer": {},
        "main": {
            "html": false
        },
        "video-cell": {},
        "stars": {},
        "video": {},
        "pagination": {},
        "aside": {},
        "game": {},
        "comments": {}
	},
	"modernizr": {
		"minify": true,
		"classPrefix": "u-support_",
		"options": [
			"setClasses"
		],
		"feature-detects": [
			"css/calc",
			"css/columns",
			"css/flexbox",
			"css/flexboxlegacy",
			"css/flexboxtweener",
			"css/flexwrap",
			"css/transforms",
			"img/webp",
			"svg/inline"
		]
	}
}